\begin{thebibliography}{1}

\bibitem{gonzalez2008}
R.~C. Gonzalez and R.~E. Woods, {\em Digital Image Processing}.
\newblock Prentice Hall, third~ed., 2008.

\bibitem{raczkowsky1998}
J.~Raczkowsky, P.~Bohner, C.~Burghart, and H.~Grabowski, ``Planning and
  simulation of medical robot tasks.,'' {\em Stud Health Technol Inform},
  vol.~50, pp.~209--214, 1998.

\bibitem{bergeles2019}
C.~Bergeles, {\em 7MRI0040: Medical Robotics Theory and Applications - Lecture
  8: Haptics and Force Control}.
\newblock King's College London, 2019.

\bibitem{panda}
Franka Amika (www.active-robots.com/franka-emika-panda.html), {\em Panda Robot
  Arm}.

\bibitem{bagga2018}
V.~Bagga and D.~Bhattacharyya, ``Robotics in neurosurgery,'' {\em The Annals of
  The Royal College of Surgeons of England}, vol.~100, no.~6\_sup, pp.~23--26,
  2018.
\newblock PMID: 29717891.

\end{thebibliography}
