\relax 
\providecommand\hyper@newdestlabel[2]{}
\providecommand\HyperFirstAtBeginDocument{\AtBeginDocument}
\HyperFirstAtBeginDocument{\ifx\hyper@anchor\@undefined
\global\let\oldcontentsline\contentsline
\gdef\contentsline#1#2#3#4{\oldcontentsline{#1}{#2}{#3}}
\global\let\oldnewlabel\newlabel
\gdef\newlabel#1#2{\newlabelxx{#1}#2}
\gdef\newlabelxx#1#2#3#4#5#6{\oldnewlabel{#1}{{#2}{#3}}}
\AtEndDocument{\ifx\hyper@anchor\@undefined
\let\contentsline\oldcontentsline
\let\newlabel\oldnewlabel
\fi}
\fi}
\global\let\hyper@last\relax 
\gdef\HyperFirstAtBeginDocument#1{#1}
\providecommand\HyField@AuxAddToFields[1]{}
\providecommand\HyField@AuxAddToCoFields[2]{}
\citation{gonzalez2008}
\citation{raczkowsky1998}
\citation{bergeles2019}
\@writefile{lof}{\contentsline {figure}{\numberline {1}{\ignorespaces Path planning results - step by step\relax }}{3}{figure.caption.8}}
\providecommand*\caption@xref[2]{\@setref\relax\@undefined{#1}}
\newlabel{fig:path-planning-results}{{1}{3}{Path planning results - step by step\relax }{figure.caption.8}{}}
\citation{panda}
\newlabel{fig:hippo-targeted}{{2a}{6}{Hippocampus successfully targeted\relax }{figure.caption.18}{}}
\newlabel{sub@fig:hippo-targeted}{{a}{6}{Hippocampus successfully targeted\relax }{figure.caption.18}{}}
\newlabel{fig:opt-traj-with-crit-structures}{{2b}{6}{Entry point in relation to critical structures \relax }{figure.caption.18}{}}
\newlabel{sub@fig:opt-traj-with-crit-structures}{{b}{6}{Entry point in relation to critical structures \relax }{figure.caption.18}{}}
\@writefile{lof}{\contentsline {figure}{\numberline {2}{\ignorespaces Optimum trajectory visualisation\relax }}{6}{figure.caption.18}}
\newlabel{optimum-points}{{2}{6}{Optimum trajectory visualisation\relax }{figure.caption.18}{}}
\newlabel{fig:traj-transform}{{3a}{6}{Transformed points (right)\relax }{figure.caption.21}{}}
\newlabel{sub@fig:traj-transform}{{a}{6}{Transformed points (right)\relax }{figure.caption.21}{}}
\newlabel{fig:traj-transform-coords}{{3b}{6}{Coordinates of transformed points\relax }{figure.caption.21}{}}
\newlabel{sub@fig:traj-transform-coords}{{b}{6}{Coordinates of transformed points\relax }{figure.caption.21}{}}
\@writefile{lof}{\contentsline {figure}{\numberline {3}{\ignorespaces Transformed optimum trajectory entry and target points\relax }}{6}{figure.caption.21}}
\newlabel{transformed-points}{{3}{6}{Transformed optimum trajectory entry and target points\relax }{figure.caption.21}{}}
\@writefile{lof}{\contentsline {figure}{\numberline {4}{\ignorespaces OpenIGTLink Status\relax }}{7}{figure.caption.23}}
\newlabel{tcplinks}{{4}{7}{OpenIGTLink Status\relax }{figure.caption.23}{}}
\newlabel{fig:robot-neutral}{{5a}{7}{Initial configuration\relax }{figure.caption.27}{}}
\newlabel{sub@fig:robot-neutral}{{a}{7}{Initial configuration\relax }{figure.caption.27}{}}
\newlabel{fig:robot-moved}{{5b}{7}{Updated configuration\relax }{figure.caption.27}{}}
\newlabel{sub@fig:robot-moved}{{b}{7}{Updated configuration\relax }{figure.caption.27}{}}
\@writefile{lof}{\contentsline {figure}{\numberline {5}{\ignorespaces Panda Arm in RViz\relax }}{7}{figure.caption.27}}
\newlabel{robot-arm}{{5}{7}{Panda Arm in RViz\relax }{figure.caption.27}{}}
\newlabel{fig:robot-neutral-valid-terminal}{{6a}{8}{Command Line\relax }{figure.caption.29}{}}
\newlabel{sub@fig:robot-neutral-valid-terminal}{{a}{8}{Command Line\relax }{figure.caption.29}{}}
\newlabel{fig:robot-neutral-valid-rviz}{{6b}{8}{RViz Visualisation\relax }{figure.caption.29}{}}
\newlabel{sub@fig:robot-neutral-valid-rviz}{{b}{8}{RViz Visualisation\relax }{figure.caption.29}{}}
\@writefile{lof}{\contentsline {figure}{\numberline {6}{\ignorespaces Step 1 - Reaching `neutral' position\relax }}{8}{figure.caption.29}}
\newlabel{robot-arm-neutral}{{6}{8}{Step 1 - Reaching `neutral' position\relax }{figure.caption.29}{}}
\newlabel{fig:robot-moved-valid-terminal}{{7a}{8}{Command Line\relax }{figure.caption.30}{}}
\newlabel{sub@fig:robot-moved-valid-terminal}{{a}{8}{Command Line\relax }{figure.caption.30}{}}
\newlabel{fig:robot-moved-valid-rviz}{{7b}{8}{RViz Visualisation\relax }{figure.caption.30}{}}
\newlabel{sub@fig:robot-moved-valid-rviz}{{b}{8}{RViz Visualisation\relax }{figure.caption.30}{}}
\@writefile{lof}{\contentsline {figure}{\numberline {7}{\ignorespaces Step 2 - Reaching desired position\relax }}{8}{figure.caption.30}}
\newlabel{robot-moved-valid}{{7}{8}{Step 2 - Reaching desired position\relax }{figure.caption.30}{}}
\citation{bagga2018}
\@writefile{lof}{\contentsline {figure}{\numberline {8}{\ignorespaces Position validation\relax }}{9}{figure.caption.31}}
\newlabel{fig:robot-points-comparison}{{8}{9}{Position validation\relax }{figure.caption.31}{}}
\bibstyle{ieeetr}
\bibdata{report-bib}
\bibcite{gonzalez2008}{{1}{}{{}}{{}}}
\bibcite{raczkowsky1998}{{2}{}{{}}{{}}}
\bibcite{bergeles2019}{{3}{}{{}}{{}}}
\bibcite{panda}{{4}{}{{}}{{}}}
\bibcite{bagga2018}{{5}{}{{}}{{}}}
\providecommand\NAT@force@numbers{}\NAT@force@numbers
